{
  "project_info": {
    "project_number": "406018863148",
    "firebase_url": "https://testingfcm-9b377.firebaseio.com",
    "project_id": "testingfcm-9b377",
    "storage_bucket": "testingfcm-9b377.appspot.com"
  },
  "client": [
    {
      "client_info": {
        "mobilesdk_app_id": "1:406018863148:android:00113b8400bda684",
        "android_client_info": {
          "package_name": "com.konawei.testingfcm"
        }
      },
      "oauth_client": [
        {
          "client_id": "406018863148-clji4deumtp6m6e6jdocd6hreeboioha.apps.googleusercontent.com",
          "client_type": 3
        }
      ],
      "api_key": [
        {
          "current_key": "AIzaSyA1SCwKh2Al0Ovy44cJ29TGNNmeJLNpS_Q"
        }
      ],
      "services": {
        "appinvite_service": {
          "other_platform_oauth_client": [
            {
              "client_id": "406018863148-clji4deumtp6m6e6jdocd6hreeboioha.apps.googleusercontent.com",
              "client_type": 3
            }
          ]
        }
      }
    }
  ],
  "configuration_version": "1"
}